{
  "prefixes": [
    "Abandoned",
    "Abysmal",
    "Abyssal",
    "Ancient",
    "Arcane",
    "Ashen",
    "Astral",
    "Azure",
    "Bewitched",
    "Black",
    "Bleak",
    "Blood",
    "Bright",
    "Brimstone",
    "Broken",
    "Burning",
    "Calm",
    "Celestial",
    "Cerulean",
    "Cinder",
    "Cloud",
    "Cold",
    "Corrupted",
    "Creepy",
    "Crimson",
    "Crystal",
    "Cursed",
    "Damned",
    "Dark",
    "Death's",
    "Dragon",
    "Dreadful",
    "Dry",
    "Dust",
    "East",
    "Ebon",
    "Eerie",
    "Emerald",
    "Enchanted",
    "Eternal",
    "Ethereal",
    "Evil",
    "Exalted",
    "Fire",
    "Forgotten",
    "Forsaken",
    "Foul",
    "Frozen",
    "Ghost",
    "Glimmering",
    "Gloomy",
    "Golden",
    "Great",
    "Grey",
    "Grim",
    "Gruesome",
    "Hallowed",
    "Haunted",
    "Hermit",
    "Hidden",
    "High",
    "Hollow",
    "Holy",
    "Icy",
    "Iron",
    "Ivory",
    "Jade",
    "Little",
    "Lonely",
    "Lost",
    "Lush",
    "Misty",
    "Moldy",
    "Moonlit",
    "Moss",
    "Muddy",
    "Murky",
    "Mystic",
    "New",
    "Night",
    "Noble",
    "North",
    "Oaken",
    "Obsidian",
    "Old",
    "Ominous",
    "Overgrown",
    "Pine",
    "Rogue's",
    "Rose",
    "Rotting",
    "Rusted",
    "Saint",
    "Sapphire",
    "Scorched",
    "Secluded",
    "Serene",
    "Shadow",
    "Shattered",
    "Shimmering",
    "Silent",
    "Silver",
    "Sky",
    "Sleepy",
    "Smoldering",
    "Snowy",
    "Solitary",
    "South",
    "Starlit",
    "Steel",
    "Still",
    "Stormy",
    "Sunlit",
    "Sunset",
    "Tainted",
    "Tarnished",
    "Tattered",
    "Thorny",
    "Thundering",
    "Timber",
    "Tranquil",
    "Troll",
    "Twilight",
    "Twisted",
    "Unholy",
    "Verdant",
    "Vile",
    "Vivid",
    "West",
    "White",
    "Wild",
    "Wretched"
  ],
  "suffixes": [
    "Abbey",
    "Academy",
    "Alley",
    "Arena",
    "Barn",
    "Barracks",
    "Barrow",
    "Bastion",
    "Battlement",
    "Bazaar",
    "Bog",
    "Bridge",
    "Cairn",
    "Castle",
    "Catacombs",
    "Cave",
    "Cavern",
    "Cemetery",
    "Chapel",
    "Citadel",
    "Clachan",
    "College",
    "Cove",
    "Crag",
    "Creek",
    "Crypt",
    "Den",
    "Dome",
    "Dungeon",
    "Estate",
    "Falls",
    "Farm",
    "Field",
    "Forest",
    "Forge",
    "Fort",
    "Fortress",
    "Foundry",
    "Garden",
    "Garrison",
    "Gate",
    "Glade",
    "Glen",
    "Grotto",
    "Grove",
    "Hall",
    "Harbor",
    "Haven",
    "Hill",
    "Hold",
    "Keep",
    "Lair",
    "Lake",
    "Library",
    "Lighthouse",
    "Lodge",
    "Loft",
    "Manor",
    "Manse",
    "Mansion",
    "Market",
    "Meadow",
    "Mill",
    "Minster",
    "Mire",
    "Mist",
    "Moon",
    "Moor",
    "Mound",
    "Night",
    "Oasis",
    "Palace",
    "Paradise",
    "Pass",
    "Pasture",
    "Peak",
    "Pinnacle",
    "Pit",
    "Pond",
    "Rampart",
    "Ravine",
    "Ridge",
    "Rock",
    "Sanctuary",
    "Sands",
    "Shank",
    "Shrine",
    "Spire",
    "Star",
    "Stone",
    "Stronghold",
    "Summit",
    "Thicket",
    "Tower",
    "Township",
    "Vale",
    "Valley",
    "Villa",
    "Watch",
    "Willow",
    "Wind",
    "Wood",
    "Yard"
  ]
}
