{
  "land": [
    [
      "Bear",
      "Ghoul",
      "Giant Spider",
      "Lion",
      "Lynx",
      "Minotaur",
      "Nest of Scorpions",
      "Skeleton",
      "Wolf",
      "Zombie"
    ],
    [
      "Banshee",
      "Cyclop",
      "Genie",
      "Golem",
      "Mummy",
      "Roc",
      "Troll",
      "Werewolf",
      "Wyvern"
    ],
    [
      "Chimera",
      "Cockatrice",
      "Demon",
      "Manticore",
      "Medusa",
      "Vampire"
    ],
    [
      "Basilisk",
      "Devil",
      "Dragon",
      "Hydra",
      "Lich",
      "Phoenix"
    ]
  ],
  "ship": [
    [
      "Giant Octopus",
      "Manta Ray",
      "Piranha School",
      "Sea Turtle",
      "Shark"
    ],
    [
      "Harpy",
      "Mermaid",
      "Siren",
      "Triton"
    ],
    [
      "Sea Monster",
      "Serpent",
      "Water Elemental",
      "Whale"
    ],
    [
      "Behemoth",
      "Kraken",
      "Legion of Ghosts",
      "Leviathan"
    ]
  ]
}